^D:\ONEDRIVE\PROGRAMMING PROJECTS\UNIVERSITY\SMC - STANDARD MODERN C++\LABORATOR1\PRODUCTS\PRODUCTS\PRODUCTS\MAIN.CPP|D:\ONEDRIVE\PROGRAMMING PROJECTS\UNIVERSITY\SMC - STANDARD MODERN C++\LABORATOR1\PRODUCTS\PRODUCTS\PRODUCTS\PRODUCT.CPP
D:\ONEDRIVE\PROGRAMMING PROJECTS\UNIVERSITY\SMC - STANDARD MODERN C++\LABORATOR1\PRODUCTS\PRODUCTS\PRODUCTS\DEBUG\VC142.PDB
D:\ONEDRIVE\PROGRAMMING PROJECTS\UNIVERSITY\SMC - STANDARD MODERN C++\LABORATOR1\PRODUCTS\PRODUCTS\PRODUCTS\DEBUG\VC142.IDB
D:\ONEDRIVE\PROGRAMMING PROJECTS\UNIVERSITY\SMC - STANDARD MODERN C++\LABORATOR1\PRODUCTS\PRODUCTS\PRODUCTS\DEBUG\PRODUCT.OBJ
^D:\ONEDRIVE\PROGRAMMING PROJECTS\UNIVERSITY\SMC - STANDARD MODERN C++\LABORATOR1\PRODUCTS\PRODUCTS\PRODUCTS\IPRICABLE.CPP|D:\ONEDRIVE\PROGRAMMING PROJECTS\UNIVERSITY\SMC - STANDARD MODERN C++\LABORATOR1\PRODUCTS\PRODUCTS\PRODUCTS\MAIN.CPP
D:\ONEDRIVE\PROGRAMMING PROJECTS\UNIVERSITY\SMC - STANDARD MODERN C++\LABORATOR1\PRODUCTS\PRODUCTS\PRODUCTS\DEBUG\VC142.PDB
D:\ONEDRIVE\PROGRAMMING PROJECTS\UNIVERSITY\SMC - STANDARD MODERN C++\LABORATOR1\PRODUCTS\PRODUCTS\PRODUCTS\DEBUG\VC142.IDB
D:\ONEDRIVE\PROGRAMMING PROJECTS\UNIVERSITY\SMC - STANDARD MODERN C++\LABORATOR1\PRODUCTS\PRODUCTS\PRODUCTS\DEBUG\MAIN.OBJ
D:\ONEDRIVE\PROGRAMMING PROJECTS\UNIVERSITY\SMC - STANDARD MODERN C++\LABORATOR1\PRODUCTS\PRODUCTS\PRODUCTS\DEBUG\IPRICABLE.OBJ
^D:\ONEDRIVE\PROGRAMMING PROJECTS\UNIVERSITY\SMC - STANDARD MODERN C++\LABORATOR1\PRODUCTS\PRODUCTS\PRODUCTS\IPRICEABLE.CPP|D:\ONEDRIVE\PROGRAMMING PROJECTS\UNIVERSITY\SMC - STANDARD MODERN C++\LABORATOR1\PRODUCTS\PRODUCTS\PRODUCTS\MAIN.CPP
D:\ONEDRIVE\PROGRAMMING PROJECTS\UNIVERSITY\SMC - STANDARD MODERN C++\LABORATOR1\PRODUCTS\PRODUCTS\PRODUCTS\DEBUG\VC142.PDB
D:\ONEDRIVE\PROGRAMMING PROJECTS\UNIVERSITY\SMC - STANDARD MODERN C++\LABORATOR1\PRODUCTS\PRODUCTS\PRODUCTS\DEBUG\VC142.IDB
D:\ONEDRIVE\PROGRAMMING PROJECTS\UNIVERSITY\SMC - STANDARD MODERN C++\LABORATOR1\PRODUCTS\PRODUCTS\PRODUCTS\DEBUG\MAIN.OBJ
D:\ONEDRIVE\PROGRAMMING PROJECTS\UNIVERSITY\SMC - STANDARD MODERN C++\LABORATOR1\PRODUCTS\PRODUCTS\PRODUCTS\DEBUG\IPRICEABLE.OBJ
^D:\ONEDRIVE\PROGRAMMING PROJECTS\UNIVERSITY\SMC - STANDARD MODERN C++\LABORATOR1\PRODUCTS\PRODUCTS\PRODUCTS\IPRICEABLE.CPP
D:\ONEDRIVE\PROGRAMMING PROJECTS\UNIVERSITY\SMC - STANDARD MODERN C++\LABORATOR1\PRODUCTS\PRODUCTS\PRODUCTS\DEBUG\VC142.PDB
^D:\ONEDRIVE\PROGRAMMING PROJECTS\UNIVERSITY\SMC - STANDARD MODERN C++\LABORATOR1\PRODUCTS\PRODUCTS\PRODUCTS\MAIN.CPP|D:\ONEDRIVE\PROGRAMMING PROJECTS\UNIVERSITY\SMC - STANDARD MODERN C++\LABORATOR1\PRODUCTS\PRODUCTS\PRODUCTS\PERISHABLEPRODUCT.CPP|D:\ONEDRIVE\PROGRAMMING PROJECTS\UNIVERSITY\SMC - STANDARD MODERN C++\LABORATOR1\PRODUCTS\PRODUCTS\PRODUCTS\PRODUCT.CPP
D:\ONEDRIVE\PROGRAMMING PROJECTS\UNIVERSITY\SMC - STANDARD MODERN C++\LABORATOR1\PRODUCTS\PRODUCTS\PRODUCTS\DEBUG\VC142.PDB
D:\ONEDRIVE\PROGRAMMING PROJECTS\UNIVERSITY\SMC - STANDARD MODERN C++\LABORATOR1\PRODUCTS\PRODUCTS\PRODUCTS\DEBUG\VC142.IDB
D:\ONEDRIVE\PROGRAMMING PROJECTS\UNIVERSITY\SMC - STANDARD MODERN C++\LABORATOR1\PRODUCTS\PRODUCTS\PRODUCTS\DEBUG\PRODUCT.OBJ
D:\ONEDRIVE\PROGRAMMING PROJECTS\UNIVERSITY\SMC - STANDARD MODERN C++\LABORATOR1\PRODUCTS\PRODUCTS\PRODUCTS\DEBUG\PERISHABLEPRODUCT.OBJ
D:\ONEDRIVE\PROGRAMMING PROJECTS\UNIVERSITY\SMC - STANDARD MODERN C++\LABORATOR1\PRODUCTS\PRODUCTS\PRODUCTS\DEBUG\MAIN.OBJ
^D:\ONEDRIVE\PROGRAMMING PROJECTS\UNIVERSITY\SMC - STANDARD MODERN C++\LABORATOR1\PRODUCTS\PRODUCTS\PRODUCTS\PRODUCT.CPP
D:\ONEDRIVE\PROGRAMMING PROJECTS\UNIVERSITY\SMC - STANDARD MODERN C++\LABORATOR1\PRODUCTS\PRODUCTS\PRODUCTS\DEBUG\VC142.PDB
^D:\ONEDRIVE\PROGRAMMING PROJECTS\UNIVERSITY\SMC - STANDARD MODERN C++\LABORATOR1\PRODUCTS\PRODUCTS\PRODUCTS\MAIN.CPP|D:\ONEDRIVE\PROGRAMMING PROJECTS\UNIVERSITY\SMC - STANDARD MODERN C++\LABORATOR1\PRODUCTS\PRODUCTS\PRODUCTS\NONPERISHABLEPRODUCT.CPP|D:\ONEDRIVE\PROGRAMMING PROJECTS\UNIVERSITY\SMC - STANDARD MODERN C++\LABORATOR1\PRODUCTS\PRODUCTS\PRODUCTS\PERISHABLEPRODUCT.CPP
D:\ONEDRIVE\PROGRAMMING PROJECTS\UNIVERSITY\SMC - STANDARD MODERN C++\LABORATOR1\PRODUCTS\PRODUCTS\PRODUCTS\DEBUG\VC142.PDB
D:\ONEDRIVE\PROGRAMMING PROJECTS\UNIVERSITY\SMC - STANDARD MODERN C++\LABORATOR1\PRODUCTS\PRODUCTS\PRODUCTS\DEBUG\VC142.IDB
D:\ONEDRIVE\PROGRAMMING PROJECTS\UNIVERSITY\SMC - STANDARD MODERN C++\LABORATOR1\PRODUCTS\PRODUCTS\PRODUCTS\DEBUG\PERISHABLEPRODUCT.OBJ
D:\ONEDRIVE\PROGRAMMING PROJECTS\UNIVERSITY\SMC - STANDARD MODERN C++\LABORATOR1\PRODUCTS\PRODUCTS\PRODUCTS\DEBUG\NONPERISHABLEPRODUCT.OBJ
D:\ONEDRIVE\PROGRAMMING PROJECTS\UNIVERSITY\SMC - STANDARD MODERN C++\LABORATOR1\PRODUCTS\PRODUCTS\PRODUCTS\DEBUG\MAIN.OBJ
^D:\ONEDRIVE\PROGRAMMING PROJECTS\UNIVERSITY\SMC - STANDARD MODERN C++\LABORATOR1\PRODUCTS\PRODUCTS\PRODUCTS\PERISHABLEPRODUCT.CPP
D:\ONEDRIVE\PROGRAMMING PROJECTS\UNIVERSITY\SMC - STANDARD MODERN C++\LABORATOR1\PRODUCTS\PRODUCTS\PRODUCTS\DEBUG\VC142.PDB
^D:\ONEDRIVE\PROGRAMMING PROJECTS\UNIVERSITY\SMC - STANDARD MODERN C++\LABORATOR1\PRODUCTS\PRODUCTS\PRODUCTS\MAIN.CPP|D:\ONEDRIVE\PROGRAMMING PROJECTS\UNIVERSITY\SMC - STANDARD MODERN C++\LABORATOR1\PRODUCTS\PRODUCTS\PRODUCTS\NONPERISHABLEPRODUCT.CPP
D:\ONEDRIVE\PROGRAMMING PROJECTS\UNIVERSITY\SMC - STANDARD MODERN C++\LABORATOR1\PRODUCTS\PRODUCTS\PRODUCTS\DEBUG\VC142.PDB
D:\ONEDRIVE\PROGRAMMING PROJECTS\UNIVERSITY\SMC - STANDARD MODERN C++\LABORATOR1\PRODUCTS\PRODUCTS\PRODUCTS\DEBUG\VC142.IDB
D:\ONEDRIVE\PROGRAMMING PROJECTS\UNIVERSITY\SMC - STANDARD MODERN C++\LABORATOR1\PRODUCTS\PRODUCTS\PRODUCTS\DEBUG\NONPERISHABLEPRODUCT.OBJ
^D:\ONEDRIVE\PROGRAMMING PROJECTS\UNIVERSITY\SMC - STANDARD MODERN C++\LABORATOR1\PRODUCTS\PRODUCTS\PRODUCTS\NONPERISHABLEPRODUCT.CPP
D:\ONEDRIVE\PROGRAMMING PROJECTS\UNIVERSITY\SMC - STANDARD MODERN C++\LABORATOR1\PRODUCTS\PRODUCTS\PRODUCTS\DEBUG\NONPERISHABLEPRODUCT.OBJ
^D:\ONEDRIVE\PROGRAMMING PROJECTS\UNIVERSITY\SMC - STANDARD MODERN C++\LABORATOR1\PRODUCTS\PRODUCTS\PRODUCTS\MAIN.CPP
D:\ONEDRIVE\PROGRAMMING PROJECTS\UNIVERSITY\SMC - STANDARD MODERN C++\LABORATOR1\PRODUCTS\PRODUCTS\PRODUCTS\DEBUG\VC142.PDB
D:\ONEDRIVE\PROGRAMMING PROJECTS\UNIVERSITY\SMC - STANDARD MODERN C++\LABORATOR1\PRODUCTS\PRODUCTS\PRODUCTS\DEBUG\VC142.IDB
D:\ONEDRIVE\PROGRAMMING PROJECTS\UNIVERSITY\SMC - STANDARD MODERN C++\LABORATOR1\PRODUCTS\PRODUCTS\PRODUCTS\DEBUG\MAIN.OBJ
