^D:\ONEDRIVE\PROGRAMMING PROJECTS\UNIVERSITY\SMC - STANDARD MODERN C++\LABORATOR1\PRODUCTS\PRODUCTS\PRODUCTS\DEBUG\MAIN.OBJ|D:\ONEDRIVE\PROGRAMMING PROJECTS\UNIVERSITY\SMC - STANDARD MODERN C++\LABORATOR1\PRODUCTS\PRODUCTS\PRODUCTS\DEBUG\NONPERISHABLEPRODUCT.OBJ|D:\ONEDRIVE\PROGRAMMING PROJECTS\UNIVERSITY\SMC - STANDARD MODERN C++\LABORATOR1\PRODUCTS\PRODUCTS\PRODUCTS\DEBUG\PERISHABLEPRODUCT.OBJ|D:\ONEDRIVE\PROGRAMMING PROJECTS\UNIVERSITY\SMC - STANDARD MODERN C++\LABORATOR1\PRODUCTS\PRODUCTS\PRODUCTS\DEBUG\PRODUCT.OBJ
/OUT:"D:\ONEDRIVE\PROGRAMMING PROJECTS\UNIVERSITY\SMC - STANDARD MODERN C++\LABORATOR1\PRODUCTS\PRODUCTS\DEBUG\PRODUCTS.EXE" /INCREMENTAL /NOLOGO KERNEL32.LIB USER32.LIB GDI32.LIB WINSPOOL.LIB COMDLG32.LIB ADVAPI32.LIB SHELL32.LIB OLE32.LIB OLEAUT32.LIB UUID.LIB ODBC32.LIB ODBCCP32.LIB /MANIFEST /MANIFESTUAC:"level='asInvoker' uiAccess='false'" /manifest:embed /DEBUG:FASTLINK /PDB:"D:\ONEDRIVE\PROGRAMMING PROJECTS\UNIVERSITY\SMC - STANDARD MODERN C++\LABORATOR1\PRODUCTS\PRODUCTS\DEBUG\PRODUCTS.PDB" /SUBSYSTEM:CONSOLE /TLBID:1 /DYNAMICBASE /NXCOMPAT /IMPLIB:"D:\ONEDRIVE\PROGRAMMING PROJECTS\UNIVERSITY\SMC - STANDARD MODERN C++\LABORATOR1\PRODUCTS\PRODUCTS\DEBUG\PRODUCTS.LIB" /MACHINE:X86 DEBUG\MAIN.OBJ
DEBUG\NONPERISHABLEPRODUCT.OBJ
DEBUG\PERISHABLEPRODUCT.OBJ
DEBUG\PRODUCT.OBJ
